%YAML 1.1
%TAG !u! tag:unity3d.com,2011:
--- !u!129 &1
PlayerSettings:
  m_ObjectHideFlags: 0
  serializedVersion: 15
  productGUID: d33ce8a005144af439c436d7f9d5c896
  AndroidProfiler: 0
  AndroidFilterTouchesWhenObscured: 0
  AndroidEnableSustainedPerformanceMode: 0
  defaultScreenOrientation: 0
  targetDevice: 2
  useOnDemandResources: 0
  accelerometerFrequency: 60
  companyName: Spinview Global
  productName: +AR View
  defaultCursor: {fileID: 0}
  cursorHotspot: {x: 0, y: 0}
  m_SplashScreenBackgroundColor: {r: 0.13725491, g: 0.12156863, b: 0.1254902, a: 1}
  m_ShowUnitySplashScreen: 1
  m_ShowUnitySplashLogo: 1
  m_SplashScreenOverlayOpacity: 1
  m_SplashScreenAnimation: 1
  m_SplashScreenLogoStyle: 1
  m_SplashScreenDrawMode: 0
  m_SplashScreenBackgroundAnimationZoom: 1
  m_SplashScreenLogoAnimationZoom: 1
  m_SplashScreenBackgroundLandscapeAspect: 1
  m_SplashScreenBackgroundPortraitAspect: 1
  m_SplashScreenBackgroundLandscapeUvs:
    serializedVersion: 2
    x: 0
    y: 0
    width: 1
    height: 1
  m_SplashScreenBackgroundPortraitUvs:
    serializedVersion: 2
    x: 0
    y: 0
    width: 1
    height: 1
  m_SplashScreenLogos: []
  m_VirtualRealitySplashScreen: {fileID: 0}
  m_HolographicTrackingLossScreen: {fileID: 0}
  defaultScreenWidth: 1024
  defaultScreenHeight: 768
  defaultScreenWidthWeb: 960
  defaultScreenHeightWeb: 600
  m_StereoRenderingPath: 0
  m_ActiveColorSpace: 0
  m_MTRendering: 1
  m_StackTraceTypes: 010000000100000001000000010000000100000001000000
  iosShowActivityIndicatorOnLoading: -1
  androidShowActivityIndicatorOnLoading: -1
  iosAppInBackgroundBehavior: 0
  displayResolutionDialog: 1
  iosAllowHTTPDownload: 1
  allowedAutorotateToPortrait: 1
  allowedAutorotateToPortraitUpsideDown: 1
  allowedAutorotateToLandscapeRight: 1
  allowedAutorotateToLandscapeLeft: 1
  useOSAutorotation: 1
  use32BitDisplayBuffer: 1
  preserveFramebufferAlpha: 0
  disableDepthAndStencilBuffers: 0
  androidStartInFullscreen: 1
  androidRenderOutsideSafeArea: 0
  androidBlitType: 0
  defaultIsNativeResolution: 1
  macRetinaSupport: 1
  runInBackground: 1
  captureSingleScreen: 0
  muteOtherAudioSources: 0
  Prepare IOS For Recording: 0
  Force IOS Speakers When Recording: 0
  deferSystemGesturesMode: 0
  hideHomeButton: 0
  submitAnalytics: 1
  usePlayerLog: 1
  bakeCollisionMeshes: 0
  forceSingleInstance: 0
  resizableWindow: 0
  useMacAppStoreValidation: 0
  macAppStoreCategory: public.app-category.games
  gpuSkinning: 1
  graphicsJobs: 0
  xboxPIXTextureCapture: 0
  xboxEnableAvatar: 0
  xboxEnableKinect: 0
  xboxEnableKinectAutoTracking: 0
  xboxEnableFitness: 0
  visibleInBackground: 1
  allowFullscreenSwitch: 1
  graphicsJobMode: 0
  fullscreenMode: 1
  xboxSpeechDB: 0
  xboxEnableHeadOrientation: 0
  xboxEnableGuest: 0
  xboxEnablePIXSampling: 0
  metalFramebufferOnly: 0
  xboxOneResolution: 0
  xboxOneSResolution: 0
  xboxOneXResolution: 3
  xboxOneMonoLoggingLevel: 0
  xboxOneLoggingLevel: 1
  xboxOneDisableEsram: 0
  xboxOnePresentImmediateThreshold: 0
  switchQueueCommandMemory: 0
  vulkanEnableSetSRGBWrite: 0
  m_SupportedAspectRatios:
    4:3: 1
    5:4: 1
    16:10: 1
    16:9: 1
    Others: 1
  bundleVersion: 0.3
  preloadedAssets: []
  metroInputSource: 0
  wsaTransparentSwapchain: 0
  m_HolographicPauseOnTrackingLoss: 1
  xboxOneDisableKinectGpuReservation: 0
  xboxOneEnable7thCore: 0
  isWsaHolographicRemotingEnabled: 0
  vrSettings:
    cardboard:
      depthFormat: 0
      enableTransitionView: 0
    daydream:
      depthFormat: 0
      useSustainedPerformanceMode: 0
      enableVideoLayer: 0
      useProtectedVideoMemory: 0
      minimumSupportedHeadTracking: 0
      maximumSupportedHeadTracking: 1
    hololens:
      depthFormat: 1
      depthBufferSharingEnabled: 0
    oculus:
      sharedDepthBuffer: 1
      dashSupport: 1
    enable360StereoCapture: 0
  protectGraphicsMemory: 0
  enableFrameTimingStats: 0
  useHDRDisplay: 0
  m_ColorGamuts: 00000000
  targetPixelDensity: 30
  resolutionScalingMode: 0
  androidSupportedAspectRatio: 1
  androidMaxAspectRatio: 2.1
  applicationIdentifier:
    Android: io.spinview.arview
    Standalone: arview.spinview.io
    iOS: arview.spinview.io
  buildNumber: {}
  AndroidBundleVersionCode: 3
  AndroidMinSdkVersion: 26
  AndroidTargetSdkVersion: 0
  AndroidPreferredInstallLocation: 0
  aotOptions: 
  stripEngineCode: 1
  iPhoneStrippingLevel: 0
  iPhoneScriptCallOptimization: 0
  ForceInternetPermission: 0
  ForceSDCardPermission: 1
  CreateWallpaper: 0
  APKExpansionFiles: 0
  keepLoadedShadersAlive: 0
  StripUnusedMeshComponents: 1
  VertexChannelCompressionMask: 214
  iPhoneSdkVersion: 988
  iOSTargetOSVersionString: 11.0
  tvOSSdkVersion: 0
  tvOSRequireExtendedGameController: 0
  tvOSTargetOSVersionString: 9.0
  uIPrerenderedIcon: 0
  uIRequiresPersistentWiFi: 0
  uIRequiresFullScreen: 1
  uIStatusBarHidden: 1
  uIExitOnSuspend: 0
  uIStatusBarStyle: 0
  iPhoneSplashScreen: {fileID: 0}
  iPhoneHighResSplashScreen: {fileID: 0}
  iPhoneTallHighResSplashScreen: {fileID: 0}
  iPhone47inSplashScreen: {fileID: 0}
  iPhone55inPortraitSplashScreen: {fileID: 0}
  iPhone55inLandscapeSplashScreen: {fileID: 0}
  iPhone58inPortraitSplashScreen: {fileID: 0}
  iPhone58inLandscapeSplashScreen: {fileID: 0}
  iPadPortraitSplashScreen: {fileID: 0}
  iPadHighResPortraitSplashScreen: {fileID: 0}
  iPadLandscapeSplashScreen: {fileID: 0}
  iPadHighResLandscapeSplashScreen: {fileID: 0}
  appleTVSplashScreen: {fileID: 0}
  appleTVSplashScreen2x: {fileID: 0}
  tvOSSmallIconLayers: []
  tvOSSmallIconLayers2x: []
  tvOSLargeIconLayers: []
  tvOSLargeIconLayers2x: []
  tvOSTopShelfImageLayers: []
  tvOSTopShelfImageLayers2x: []
  tvOSTopShelfImageWideLayers: []
  tvOSTopShelfImageWideLayers2x: []
  iOSLaunchScreenType: 0
  iOSLaunchScreenPortrait: {fileID: 0}
  iOSLaunchScreenLandscape: {fileID: 0}
  iOSLaunchScreenBackgroundColor:
    serializedVersion: 2
    rgba: 0
  iOSLaunchScreenFillPct: 100
  iOSLaunchScreenSize: 100
  iOSLaunchScreenCustomXibPath: 
  iOSLaunchScreeniPadType: 0
  iOSLaunchScreeniPadImage: {fileID: 0}
  iOSLaunchScreeniPadBackgroundColor:
    serializedVersion: 2
    rgba: 0
  iOSLaunchScreeniPadFillPct: 100
  iOSLaunchScreeniPadSize: 100
  iOSLaunchScreeniPadCustomXibPath: 
  iOSUseLaunchScreenStoryboard: 0
  iOSLaunchScreenCustomStoryboardPath: 
  iOSDeviceRequirements: []
  iOSURLSchemes: []
  iOSBackgroundModes: 0
  iOSMetalForceHardShadows: 0
  metalEditorSupport: 1
  metalAPIValidation: 1
  iOSRenderExtraFrameOnPause: 0
  appleDeveloperTeamID: 
  iOSManualSigningProvisioningProfileID: 
  tvOSManualSigningProvisioningProfileID: 
  iOSManualSigningProvisioningProfileType: 0
  tvOSManualSigningProvisioningProfileType: 0
  appleEnableAutomaticSigning: 0
  iOSRequireARKit: 0
  appleEnableProMotion: 0
  clonedFromGUID: c0afd0d1d80e3634a9dac47e8a0426ea
  templatePackageId: 
  templateDefaultScene: 
  AndroidTargetArchitectures: 1
  AndroidSplashScreenScale: 0
  androidSplashScreen: {fileID: 0}
  AndroidKeystoreName: D:/Jovan/UnityProjects/ARView/arview.keystore
  AndroidKeyaliasName: +arview
  AndroidBuildApkPerCpuArchitecture: 0
  AndroidTVCompatibility: 0
  AndroidIsGame: 1
  AndroidEnableTango: 0
  androidEnableBanner: 1
  androidUseLowAccuracyLocation: 0
  m_AndroidBanners:
  - width: 320
    height: 180
    banner: {fileID: 0}
  androidGamepadSupportLevel: 0
  resolutionDialogBanner: {fileID: 0}
  m_BuildTargetIcons: []
  m_BuildTargetPlatformIcons:
  - m_BuildTarget: Android
    m_Icons:
    - m_Textures:
      - {fileID: 2800000, guid: 2a72ee64d2c21b34ca22740796cf505f, type: 3}
      m_Width: 192
      m_Height: 192
      m_Kind: 0
      m_SubKind: 
    - m_Textures:
      - {fileID: 2800000, guid: cb859a4700b88af45a39ef8d9f384f0b, type: 3}
      m_Width: 144
      m_Height: 144
      m_Kind: 0
      m_SubKind: 
    - m_Textures:
      - {fileID: 2800000, guid: 31680dc86c705494d8eee3ad7ad5a0d3, type: 3}
      m_Width: 96
      m_Height: 96
      m_Kind: 0
      m_SubKind: 
    - m_Textures:
      - {fileID: 2800000, guid: 8e716149f9ac7ab4c982ed8e0d5f1da6, type: 3}
      m_Width: 72
      m_Height: 72
      m_Kind: 0
      m_SubKind: 
    - m_Textures:
      - {fileID: 2800000, guid: 913bdc1f2e0e6d24090f3786394ab2f6, type: 3}
      m_Width: 48
      m_Height: 48
      m_Kind: 0
      m_SubKind: 
    - m_Textures:
      - {fileID: 2800000, guid: a6355f3156357654191cb61f53cc6f33, type: 3}
      m_Width: 36
      m_Height: 36
      m_Kind: 0
      m_SubKind: 
    - m_Textures:
      - {fileID: 2800000, guid: 2a72ee64d2c21b34ca22740796cf505f, type: 3}
      m_Width: 192
      m_Height: 192
      m_Kind: 1
      m_SubKind: 
    - m_Textures:
      - {fileID: 2800000, guid: cb859a4700b88af45a39ef8d9f384f0b, type: 3}
      m_Width: 144
      m_Height: 144
      m_Kind: 1
      m_SubKind: 
    - m_Textures:
      - {fileID: 2800000, guid: 31680dc86c705494d8eee3ad7ad5a0d3, type: 3}
      m_Width: 96
      m_Height: 96
      m_Kind: 1
      m_SubKind: 
    - m_Textures:
      - {fileID: 2800000, guid: 8e716149f9ac7ab4c982ed8e0d5f1da6, type: 3}
      m_Width: 72
      m_Height: 72
      m_Kind: 1
      m_SubKind: 
    - m_Textures:
      - {fileID: 2800000, guid: 913bdc1f2e0e6d24090f3786394ab2f6, type: 3}
      m_Width: 48
      m_Height: 48
      m_Kind: 1
      m_SubKind: 
    - m_Textures:
      - {fileID: 2800000, guid: a6355f3156357654191cb61f53cc6f33, type: 3}
      m_Width: 36
      m_Height: 36
      m_Kind: 1
      m_SubKind: 
    - m_Textures:
      - {fileID: 2800000, guid: 22877d556c345054d8395318765f8cc1, type: 3}
      - {fileID: 2800000, guid: 5b609eee155841847a4cdcc69ac869f2, type: 3}
      m_Width: 432
      m_Height: 432
      m_Kind: 2
      m_SubKind: 
    - m_Textures:
      - {fileID: 2800000, guid: fd3b2888166ff6844a0576e911ed65eb, type: 3}
      - {fileID: 2800000, guid: cfa0bac56d52f40468e49158924eb458, type: 3}
      m_Width: 324
      m_Height: 324
      m_Kind: 2
      m_SubKind: 
    - m_Textures:
      - {fileID: 2800000, guid: 7fc88f75e30a43641998c112adc67427, type: 3}
      - {fileID: 2800000, guid: 48aedc96e90342c46ac7e8cc158ad83f, type: 3}
      m_Width: 216
      m_Height: 216
      m_Kind: 2
      m_SubKind: 
    - m_Textures:
      - {fileID: 2800000, guid: 608f14a8ad363554d891e47343ae9004, type: 3}
      - {fileID: 2800000, guid: dbbd78394acc2214491543bfeff35a33, type: 3}
      m_Width: 162
      m_Height: 162
      m_Kind: 2
      m_SubKind: 
    - m_Textures:
      - {fileID: 2800000, guid: 2edef4a9bd0252e4a91bf58f6690001d, type: 3}
      - {fileID: 2800000, guid: adcff0ab5f221d44daf6de4227d0034c, type: 3}
      m_Width: 108
      m_Height: 108
      m_Kind: 2
      m_SubKind: 
    - m_Textures:
      - {fileID: 2800000, guid: a422909301766624caf7d9b9241c5a85, type: 3}
      - {fileID: 2800000, guid: e963ade5d1c61df4a9bf8ed7ffc14fbf, type: 3}
      m_Width: 81
      m_Height: 81
      m_Kind: 2
      m_SubKind: 
  - m_BuildTarget: iPhone
    m_Icons:
    - m_Textures:
      - {fileID: 2800000, guid: fc38ddf9d948dcf4aa79696228dbf0fc, type: 3}
      m_Width: 180
      m_Height: 180
      m_Kind: 0
      m_SubKind: iPhone
    - m_Textures:
      - {fileID: 2800000, guid: 06116515b79ee0d4d970e02439f0cab7, type: 3}
      m_Width: 120
      m_Height: 120
      m_Kind: 0
      m_SubKind: iPhone
    - m_Textures:
      - {fileID: 2800000, guid: 42c6ed8ca653085468f1d06899e56759, type: 3}
      m_Width: 167
      m_Height: 167
      m_Kind: 0
      m_SubKind: iPad
    - m_Textures:
      - {fileID: 2800000, guid: 46720e79ea5d84347876c0f68e9b9bcc, type: 3}
      m_Width: 152
      m_Height: 152
      m_Kind: 0
      m_SubKind: iPad
    - m_Textures:
      - {fileID: 2800000, guid: 0e0781d2780b4544682ea1523dc22740, type: 3}
      m_Width: 76
      m_Height: 76
      m_Kind: 0
      m_SubKind: iPad
    - m_Textures:
      - {fileID: 2800000, guid: 103a6b95a6e3b9443b788616f4099e18, type: 3}
      m_Width: 120
      m_Height: 120
      m_Kind: 3
      m_SubKind: iPhone
    - m_Textures:
      - {fileID: 2800000, guid: baa82987c33b6f148b8650f98ac9e621, type: 3}
      m_Width: 80
      m_Height: 80
      m_Kind: 3
      m_SubKind: iPhone
    - m_Textures:
      - {fileID: 2800000, guid: baa82987c33b6f148b8650f98ac9e621, type: 3}
      m_Width: 80
      m_Height: 80
      m_Kind: 3
      m_SubKind: iPad
    - m_Textures:
      - {fileID: 2800000, guid: c9ed994d0707f0b4fa6681788d3d40c7, type: 3}
      m_Width: 40
      m_Height: 40
      m_Kind: 3
      m_SubKind: iPad
    - m_Textures:
      - {fileID: 2800000, guid: 1034b19bd6f7b27498749c54c1df5b33, type: 3}
      m_Width: 87
      m_Height: 87
      m_Kind: 1
      m_SubKind: iPhone
    - m_Textures:
      - {fileID: 2800000, guid: 3faa35618066630459823ba0dcc257a9, type: 3}
      m_Width: 58
      m_Height: 58
      m_Kind: 1
      m_SubKind: iPhone
    - m_Textures:
      - {fileID: 2800000, guid: 9b56c29575db32744adca0161df675b4, type: 3}
      m_Width: 29
      m_Height: 29
      m_Kind: 1
      m_SubKind: iPhone
    - m_Textures:
      - {fileID: 2800000, guid: 3faa35618066630459823ba0dcc257a9, type: 3}
      m_Width: 58
      m_Height: 58
      m_Kind: 1
      m_SubKind: iPad
    - m_Textures:
      - {fileID: 2800000, guid: 9b56c29575db32744adca0161df675b4, type: 3}
      m_Width: 29
      m_Height: 29
      m_Kind: 1
      m_SubKind: iPad
    - m_Textures:
      - {fileID: 2800000, guid: 32b2f21d843228242b389fefbe4eade6, type: 3}
      m_Width: 60
      m_Height: 60
      m_Kind: 2
      m_SubKind: iPhone
    - m_Textures:
      - {fileID: 2800000, guid: fb78a97d234c9144e8d4972343144f0e, type: 3}
      m_Width: 40
      m_Height: 40
      m_Kind: 2
      m_SubKind: iPhone
    - m_Textures:
      - {fileID: 2800000, guid: fb78a97d234c9144e8d4972343144f0e, type: 3}
      m_Width: 40
      m_Height: 40
      m_Kind: 2
      m_SubKind: iPad
    - m_Textures:
      - {fileID: 2800000, guid: 964af44c06394b545b2e412efcc9d7ef, type: 3}
      m_Width: 20
      m_Height: 20
      m_Kind: 2
      m_SubKind: iPad
    - m_Textures:
      - {fileID: 2800000, guid: 5c80e7ba9b1c2f744b238e75d627dcec, type: 3}
      m_Width: 1024
      m_Height: 1024
      m_Kind: 4
      m_SubKind: App Store
  m_BuildTargetBatching:
  - m_BuildTarget: Standalone
    m_StaticBatching: 1
    m_DynamicBatching: 0
  - m_BuildTarget: tvOS
    m_StaticBatching: 1
    m_DynamicBatching: 0
  - m_BuildTarget: Android
    m_StaticBatching: 1
    m_DynamicBatching: 0
  - m_BuildTarget: iPhone
    m_StaticBatching: 1
    m_DynamicBatching: 0
  - m_BuildTarget: WebGL
    m_StaticBatching: 0
    m_DynamicBatching: 0
  m_BuildTargetGraphicsAPIs:
  - m_BuildTarget: AndroidPlayer
    m_APIs: 0b00000008000000
    m_Automatic: 1
  - m_BuildTarget: iOSSupport
    m_APIs: 10000000
    m_Automatic: 1
  - m_BuildTarget: AppleTVSupport
    m_APIs: 10000000
    m_Automatic: 0
  - m_BuildTarget: WebGLSupport
    m_APIs: 0b000000
    m_Automatic: 1
  - m_BuildTarget: MetroSupport
    m_APIs: 1200000002000000
    m_Automatic: 1
  m_BuildTargetVRSettings:
  - m_BuildTarget: Standalone
    m_Enabled: 0
    m_Devices:
    - Oculus
    - OpenVR
  m_BuildTargetEnableVuforiaSettings:
  - m_BuildTarget: Metro
    m_Enabled: 1
  - m_BuildTarget: Android
    m_Enabled: 1
  - m_BuildTarget: iOS
    m_Enabled: 1
  openGLRequireES31: 0
  openGLRequireES31AEP: 0
  m_TemplateCustomTags: {}
  mobileMTRendering:
    Android: 0
    iPhone: 1
    tvOS: 1
  m_BuildTargetGroupLightmapEncodingQuality: []
  m_BuildTargetGroupLightmapSettings: []
  playModeTestRunnerEnabled: 0
  runPlayModeTestAsEditModeTest: 0
  actionOnDotNetUnhandledException: 1
  enableInternalProfiler: 0
  logObjCUncaughtExceptions: 1
  enableCrashReportAPI: 0
  cameraUsageDescription: The App uses the camera to scan let you scan your surrounding
    and place augmented object in it.
  locationUsageDescription: The app uses the location to make you a map image of the
    area where you are when taking a screenshot
  microphoneUsageDescription: 
  switchNetLibKey: 
  switchSocketMemoryPoolSize: 6144
  switchSocketAllocatorPoolSize: 128
  switchSocketConcurrencyLimit: 14
  switchScreenResolutionBehavior: 2
  switchUseCPUProfiler: 0
  switchApplicationID: 0x01004b9000490000
  switchNSODependencies: 
  switchTitleNames_0: 
  switchTitleNames_1: 
  switchTitleNames_2: 
  switchTitleNames_3: 
  switchTitleNames_4: 
  switchTitleNames_5: 
  switchTitleNames_6: 
  switchTitleNames_7: 
  switchTitleNames_8: 
  switchTitleNames_9: 
  switchTitleNames_10: 
  switchTitleNames_11: 
  switchTitleNames_12: 
  switchTitleNames_13: 
  switchTitleNames_14: 
  switchPublisherNames_0: 
  switchPublisherNames_1: 
  switchPublisherNames_2: 
  switchPublisherNames_3: 
  switchPublisherNames_4: 
  switchPublisherNames_5: 
  switchPublisherNames_6: 
  switchPublisherNames_7: 
  switchPublisherNames_8: 
  switchPublisherNames_9: 
  switchPublisherNames_10: 
  switchPublisherNames_11: 
  switchPublisherNames_12: 
  switchPublisherNames_13: 
  switchPublisherNames_14: 
  switchIcons_0: {fileID: 0}
  switchIcons_1: {fileID: 0}
  switchIcons_2: {fileID: 0}
  switchIcons_3: {fileID: 0}
  switchIcons_4: {fileID: 0}
  switchIcons_5: {fileID: 0}
  switchIcons_6: {fileID: 0}
  switchIcons_7: {fileID: 0}
  switchIcons_8: {fileID: 0}
  switchIcons_9: {fileID: 0}
  switchIcons_10: {fileID: 0}
  switchIcons_11: {fileID: 0}
  switchIcons_12: {fileID: 0}
  switchIcons_13: {fileID: 0}
  switchIcons_14: {fileID: 0}
  switchSmallIcons_0: {fileID: 0}
  switchSmallIcons_1: {fileID: 0}
  switchSmallIcons_2: {fileID: 0}
  switchSmallIcons_3: {fileID: 0}
  switchSmallIcons_4: {fileID: 0}
  switchSmallIcons_5: {fileID: 0}
  switchSmallIcons_6: {fileID: 0}
  switchSmallIcons_7: {fileID: 0}
  switchSmallIcons_8: {fileID: 0}
  switchSmallIcons_9: {fileID: 0}
  switchSmallIcons_10: {fileID: 0}
  switchSmallIcons_11: {fileID: 0}
  switchSmallIcons_12: {fileID: 0}
  switchSmallIcons_13: {fileID: 0}
  switchSmallIcons_14: {fileID: 0}
  switchManualHTML: 
  switchAccessibleURLs: 
  switchLegalInformation: 
  switchMainThreadStackSize: 1048576
  switchPresenceGroupId: 
  switchLogoHandling: 0
  switchReleaseVersion: 0
  switchDisplayVersion: 1.0.0
  switchStartupUserAccount: 0
  switchTouchScreenUsage: 0
  switchSupportedLanguagesMask: 0
  switchLogoType: 0
  switchApplicationErrorCodeCategory: 
  switchUserAccountSaveDataSize: 0
  switchUserAccountSaveDataJournalSize: 0
  switchApplicationAttribute: 0
  switchCardSpecSize: -1
  switchCardSpecClock: -1
  switchRatingsMask: 0
  switchRatingsInt_0: 0
  switchRatingsInt_1: 0
  switchRatingsInt_2: 0
  switchRatingsInt_3: 0
  switchRatingsInt_4: 0
  switchRatingsInt_5: 0
  switchRatingsInt_6: 0
  switchRatingsInt_7: 0
  switchRatingsInt_8: 0
  switchRatingsInt_9: 0
  switchRatingsInt_10: 0
  switchRatingsInt_11: 0
  switchLocalCommunicationIds_0: 
  switchLocalCommunicationIds_1: 
  switchLocalCommunicationIds_2: 
  switchLocalCommunicationIds_3: 
  switchLocalCommunicationIds_4: 
  switchLocalCommunicationIds_5: 
  switchLocalCommunicationIds_6: 
  switchLocalCommunicationIds_7: 
  switchParentalControl: 0
  switchAllowsScreenshot: 1
  switchAllowsVideoCapturing: 1
  switchAllowsRuntimeAddOnContentInstall: 0
  switchDataLossConfirmation: 0
  switchUserAccountLockEnabled: 0
  switchSupportedNpadStyles: 3
  switchNativeFsCacheSize: 32
  switchIsHoldTypeHorizontal: 0
  switchSupportedNpadCount: 8
  switchSocketConfigEnabled: 0
  switchTcpInitialSendBufferSize: 32
  switchTcpInitialReceiveBufferSize: 64
  switchTcpAutoSendBufferSizeMax: 256
  switchTcpAutoReceiveBufferSizeMax: 256
  switchUdpSendBufferSize: 9
  switchUdpReceiveBufferSize: 42
  switchSocketBufferEfficiency: 4
  switchSocketInitializeEnabled: 1
  switchNetworkInterfaceManagerInitializeEnabled: 1
  switchPlayerConnectionEnabled: 1
  ps4NPAgeRating: 12
  ps4NPTitleSecret: 
  ps4NPTrophyPackPath: 
  ps4ParentalLevel: 11
  ps4ContentID: ED1633-NPXX51362_00-0000000000000000
  ps4Category: 0
  ps4MasterVersion: 01.00
  ps4AppVersion: 01.00
  ps4AppType: 0
  ps4ParamSfxPath: 
  ps4VideoOutPixelFormat: 0
  ps4VideoOutInitialWidth: 1920
  ps4VideoOutBaseModeInitialWidth: 1920
  ps4VideoOutReprojectionRate: 60
  ps4PronunciationXMLPath: 
  ps4PronunciationSIGPath: 
  ps4BackgroundImagePath: 
  ps4StartupImagePath: 
  ps4StartupImagesFolder: 
  ps4IconImagesFolder: 
  ps4SaveDataImagePath: 
  ps4SdkOverride: 
  ps4BGMPath: 
  ps4ShareFilePath: 
  ps4ShareOverlayImagePath: 
  ps4PrivacyGuardImagePath: 
  ps4NPtitleDatPath: 
  ps4RemotePlayKeyAssignment: -1
  ps4RemotePlayKeyMappingDir: 
  ps4PlayTogetherPlayerCount: 0
  ps4EnterButtonAssignment: 1
  ps4ApplicationParam1: 0
  ps4ApplicationParam2: 0
  ps4ApplicationParam3: 0
  ps4ApplicationParam4: 0
  ps4DownloadDataSize: 0
  ps4GarlicHeapSize: 2048
  ps4ProGarlicHeapSize: 2560
  ps4Passcode: frAQBc8Wsa1xVPfvJcrgRYwTiizs2trQ
  ps4pnSessions: 1
  ps4pnPresence: 1
  ps4pnFriends: 1
  ps4pnGameCustomData: 1
  playerPrefsSupport: 0
  enableApplicationExit: 0
  resetTempFolder: 1
  restrictedAudioUsageRights: 0
  ps4UseResolutionFallback: 0
  ps4ReprojectionSupport: 0
  ps4UseAudio3dBackend: 0
  ps4SocialScreenEnabled: 0
  ps4ScriptOptimizationLevel: 0
  ps4Audio3dVirtualSpeakerCount: 14
  ps4attribCpuUsage: 0
  ps4PatchPkgPath: 
  ps4PatchLatestPkgPath: 
  ps4PatchChangeinfoPath: 
  ps4PatchDayOne: 0
  ps4attribUserManagement: 0
  ps4attribMoveSupport: 0
  ps4attrib3DSupport: 0
  ps4attribShareSupport: 0
  ps4attribExclusiveVR: 0
  ps4disableAutoHideSplash: 0
  ps4videoRecordingFeaturesUsed: 0
  ps4contentSearchFeaturesUsed: 0
  ps4attribEyeToEyeDistanceSettingVR: 0
  ps4IncludedModules: []
  monoEnv: 
  splashScreenBackgroundSourceLandscape: {fileID: 0}
  splashScreenBackgroundSourcePortrait: {fileID: 0}
  spritePackerPolicy: 
  webGLMemorySize: 256
  webGLExceptionSupport: 1
  webGLNameFilesAsHashes: 0
  webGLDataCaching: 1
  webGLDebugSymbols: 0
  webGLEmscriptenArgs: 
  webGLModulesDirectory: 
  webGLTemplate: APPLICATION:Default
  webGLAnalyzeBuildSize: 0
  webGLUseEmbeddedResources: 0
  webGLCompressionFormat: 1
  webGLLinkerTarget: 1
  webGLThreadsSupport: 0
  scriptingDefineSymbols:
    7: 
    14: TRILIB_USE_ZIP
  platformArchitecture:
    iOS: 1
  scriptingBackend:
    Metro: 2
  il2cppCompilerConfiguration: {}
  managedStrippingLevel: {}
  incrementalIl2cppBuild: {}
  allowUnsafeCode: 0
  additionalIl2CppArgs: 
  scriptingRuntimeVersion: 1
  apiCompatibilityLevelPerPlatform:
    Metro: 3
  m_RenderingPath: 1
  m_MobileRenderingPath: 1
  metroPackageName: arview.spinview.io
  metroPackageVersion: 1.0.0.0
  metroCertificatePath: Assets/WSATestCertificate.pfx
  metroCertificatePassword: 
  metroCertificateSubject: DefaultCompany
  metroCertificateIssuer: DefaultCompany
  metroCertificateNotAfter: 801fcee43ee7d501
  metroApplicationDescription: Template_3D
  wsaImages:
    65636: Assets/Resources/Images/AppIcon-windows/50x50.png
    65661: Assets/Resources/Images/AppIcon-windows/63x63.png
    65686: Assets/Resources/Images/AppIcon-windows/75x75.png
    65736: Assets/Resources/Images/AppIcon-windows/100x100.png
    65936: Assets/Resources/Images/AppIcon-windows/200x200.png
    2031632: Assets/Resources/Images/AppIcon-windows/16x16.png
    2031640: Assets/Resources/Images/AppIcon-windows/24x24.png
    2031648: Assets/Resources/Images/AppIcon-windows/32x32.png
    2031664: Assets/Resources/Images/AppIcon-windows/48x48.png
    2031716: Assets/Resources/Images/AppIcon-windows/44x44.png
    2031741: Assets/Resources/Images/AppIcon-windows/55x55.png
    2031766: Assets/Resources/Images/AppIcon-windows/66x66.png
    2031816: Assets/Resources/Images/AppIcon-windows/88x88.png
    2031872: Assets/Resources/Images/AppIcon-windows/256x256.png
    2032016: Assets/Resources/Images/AppIcon-windows/176x176.png
    2097252: Assets/Resources/Images/AppIcon-windows/71x71.png
    2097277: Assets/Resources/Images/AppIcon-windows/89x89.png
    2097302: Assets/Resources/Images/AppIcon-windows/107x107.png
    2097352: Assets/Resources/Images/AppIcon-windows/142x142.png
    2097552: Assets/Resources/Images/AppIcon-windows/284x284.png
    2162788: Assets/Resources/Images/AppIcon-windows/150x150.png
    2162813: Assets/Resources/Images/AppIcon-windows/188x188.png
    2162838: Assets/Resources/Images/AppIcon-windows/225x225.png
    2162888: Assets/Resources/Images/AppIcon-windows/300x300.png
    2163088: Assets/Resources/Images/AppIcon-windows/600x600.png
    2228324: Assets/Resources/Images/AppIcon-windows/310x310.png
    2228349: Assets/Resources/Images/AppIcon-windows/388x388.png
    2228374: Assets/Resources/Images/AppIcon-windows/465x465.png
    2228424: Assets/Resources/Images/AppIcon-windows/620x620.png
    2228624: Assets/Resources/Images/AppIcon-windows/1240x1240.png
    2293860: Assets/Resources/Images/AppIcon-windows/310x150.png
    2293885: Assets/Resources/Images/UI/388x188.png
    2293910: Assets/Resources/Images/AppIcon-windows/465x225.png
    2293960: Assets/Resources/Images/AppIcon-windows/620x300.png
    2294160: Assets/Resources/Images/AppIcon-windows/1240x600.png
  metroTileShortName: +AR View
  metroTileShowName: 0
  metroMediumTileShowName: 0
  metroLargeTileShowName: 0
  metroWideTileShowName: 0
  metroSupportStreamingInstall: 0
  metroLastRequiredScene: 0
  metroDefaultTileSize: 1
  metroTileForegroundText: 2
  metroTileBackgroundColor: {r: 0.13333334, g: 0.17254902, b: 0.21568628, a: 0}
  metroSplashScreenBackgroundColor: {r: 0.12941177, g: 0.17254902, b: 0.21568628,
    a: 1}
  metroSplashScreenUseBackgroundColor: 0
  platformCapabilities:
    WindowsStoreApps:
      AllJoyn: False
      Appointments: False
      BackgroundMediaPlayback: False
      BlockedChatMessages: False
      Bluetooth: False
      Chat: False
      CodeGeneration: False
      Contacts: False
      EnterpriseAuthentication: False
      HumanInterfaceDevice: False
      InputInjectionBrokered: False
      InternetClient: True
      InternetClientServer: False
      Location: True
      LowLevelDevices: False
      Microphone: True
      MusicLibrary: False
      Objects3D: False
      OfflineMapsManagement: False
      PhoneCall: False
      PhoneCallHistoryPublic: False
      PicturesLibrary: True
      PointOfService: False
      PrivateNetworkClientServer: False
      Proximity: False
      RecordedCallsFolder: False
      RemoteSystem: False
      RemovableStorage: False
      SharedUserCertificates: False
      SpatialPerception: False
      SystemManagement: False
      UserAccountInformation: False
      UserDataTasks: False
      UserNotificationListener: False
      VideosLibrary: False
      VoipCall: False
      WebCam: True
  metroTargetDeviceFamilies:
    Desktop: False
    Holographic: False
    IoT: False
    IoTHeadless: False
    Mobile: False
    Team: False
    Xbox: False
  metroFTAName: 
  metroFTAFileTypes: []
  metroProtocolName: 
  metroCompilationOverrides: 1
  XboxOneProductId: 
  XboxOneUpdateKey: 
  XboxOneSandboxId: 
  XboxOneContentId: 
  XboxOneTitleId: 
  XboxOneSCId: 
  XboxOneGameOsOverridePath: 
  XboxOnePackagingOverridePath: 
  XboxOneAppManifestOverridePath: 
  XboxOneVersion: 1.0.0.0
  XboxOnePackageEncryption: 0
  XboxOnePackageUpdateGranularity: 2
  XboxOneDescription: 
  XboxOneLanguage:
  - enus
  XboxOneCapability: []
  XboxOneGameRating: {}
  XboxOneIsContentPackage: 0
  XboxOneEnableGPUVariability: 0
  XboxOneSockets: {}
  XboxOneSplashScreen: {fileID: 0}
  XboxOneAllowedProductIds: []
  XboxOnePersistentLocalStorageSize: 0
  XboxOneXTitleMemory: 8
  xboxOneScriptCompiler: 0
  XboxOneOverrideIdentityName: 
  vrEditorSettings:
    daydream:
      daydreamIconForeground: {fileID: 0}
      daydreamIconBackground: {fileID: 0}
  cloudServicesEnabled:
    UNet: 1
  luminIcon:
    m_Name: 
    m_ModelFolderPath: 
    m_PortalFolderPath: 
  luminCert:
    m_CertPath: 
    m_PrivateKeyPath: 
  luminIsChannelApp: 0
  luminVersion:
    m_VersionCode: 1
    m_VersionName: 
  facebookSdkVersion: 7.9.4
  facebookAppId: 
  facebookCookies: 1
  facebookLogging: 1
  facebookStatus: 1
  facebookXfbml: 0
  facebookFrictionlessRequests: 1
  apiCompatibilityLevel: 3
  cloudProjectId: 
  framebufferDepthMemorylessMode: 0
  projectName: 
  organizationId: 
  cloudEnabled: 0
  enableNativePlatformBackendsForNewInputSystem: 0
  disableOldInputManagerSupport: 0
  legacyClampBlendShapeWeights: 1
